/** MongoDB lesson {n} - mongo - install/setup */
	//download &install mongodb
	https://www.mongodb.org/
	//run mongod & mongo
	- cmd
		e:Program Files\MongoDB\Server\3.0\bin\dir\mongod
	- create folder for the data
	- cmd
		e:Program Files\MongoDB\Server\3.0\bin\dir\mongo
		
/** MongoDB lesson {n} - create/select database */
	use hockey

/** MongoDB lesson {n} - check db */
	db

/** MongoDB lesson {n} - delete db */
	- use the db you want to drop
	db.dropDatabase()

/** MongoDB lesson {n} -  */

/** MongoDB lesson {n} -  */

/** MongoDB lesson {n} -  */

/** MongoDB lesson {n} -  */

/** MongoDB lesson {n} -  */


/** MongoDB lesson {n} -  */

/** MongoDB lesson {n} -  */

/** MongoDB lesson {n} -  */

/** MongoDB lesson {n} -  */

/** MongoDB lesson {n} -  */

/** MongoDB lesson {n} -  */

/** MongoDB lesson {n} -  */

/** MongoDB lesson {n} -  */


/** MongoDB lesson {n} -  */

/** MongoDB lesson {n} -  */

/** MongoDB lesson {n} -  */

/** MongoDB lesson {n} -  */

/** MongoDB lesson {n} -  */

/** MongoDB lesson {n} -  */

/** MongoDB lesson {n} -  */

/** MongoDB lesson {n} -  */


/** MongoDB lesson {n} -  */

/** MongoDB lesson {n} -  */

/** MongoDB lesson {n} -  */

/** MongoDB lesson {n} -  */

/** MongoDB lesson {n} -  */

/** MongoDB lesson {n} -  */

/** MongoDB lesson {n} -  */

/** MongoDB lesson {n} -  */

