/** java lesson {n} - Enum Types */
	a special data type that enables for a variable to be a set of predefined constants

/** java lesson {n} - define an enum type */
	public enum Day {
		SUNDAY, MONDAY, TUESDAY, WEDNESDAY,
		THURSDAY, FRIDAY, SATURDAY 
	}

/** java lesson {n} - enum sample */
	

/** java lesson {n} -  */

/** java lesson {n} -  */

/** java lesson {n} -  */

/** java lesson {n} -  */

/** java lesson {n} -  */

/** java lesson {n} -  */

/** java lesson {n} -  */

/** java lesson {n} -  */

/** java lesson {n} -  */

/** java lesson {n} -  */

/** java lesson {n} -  */

/** java lesson {n} -  */

/** java lesson {n} -  */

/** java lesson {n} -  */

/** java lesson {n} -  */

/** java lesson {n} -  */

/** java lesson {n} -  */

/** java lesson {n} -  */

/** java lesson {n} -  */

/** java lesson {n} -  */

/** java lesson {n} -  */

/** java lesson {n} -  */

/** java lesson {n} -  */

/** java lesson {n} -  */

/** java lesson {n} -  */

/** java lesson {n} -  */

/** java lesson {n} -  */

/** java lesson {n} -  */

/** java lesson {n} -  */

/** java lesson {n} -  */

/** java lesson {n} -  */

/** java lesson {n} -  */

/** java lesson {n} -  */

/** java lesson {n} -  */

/** java lesson {n} -  */

/** java lesson {n} -  */

/** java lesson {n} -  */

/** java lesson {n} -  */

/** java lesson {n} -  */

/** java lesson {n} -  */

/** java lesson {n} -  */

/** java lesson {n} -  */

/** java lesson {n} -  */

/** java lesson {n} -  */

/** java lesson {n} -  */

/** java lesson {n} -  */

/** java lesson {n} -  */

/** java lesson {n} -  */

/** java lesson {n} -  */

/** java lesson {n} -  */

/** java lesson {n} -  */

/** java lesson {n} -  */

/** java lesson {n} -  */

/** java lesson {n} -  */

/** java lesson {n} -  */

/** java lesson {n} -  */

/** java lesson {n} -  */

/** java lesson {n} -  */

/** java lesson {n} -  */

/** java lesson {n} -  */

/** java lesson {n} -  */

/** java lesson {n} -  */

/** java lesson {n} -  */

/** java lesson {n} -  */

/** java lesson {n} -  */

/** java lesson {n} -  */

/** java lesson {n} -  */

/** java lesson {n} -  */

/** java lesson {n} -  */

/** java lesson {n} -  */

/** java lesson {n} -  */

/** java lesson {n} -  */

/** java lesson {n} -  */

/** java lesson {n} -  */

/** java lesson {n} -  */

/** java lesson {n} -  */

/** java lesson {n} -  */

/** java lesson {n} -  */

/** java lesson {n} -  */

/** java lesson {n} -  */

/** java lesson {n} -  */

/** java lesson {n} -  */

/** java lesson {n} -  */

/** java lesson {n} -  */

/** java lesson {n} -  */

/** java lesson {n} -  */

/** java lesson {n} -  */

/** java lesson {n} -  */

/** java lesson {n} -  */

/** java lesson {n} -  */

/** java lesson {n} -  */

/** java lesson {n} -  */

/** java lesson {n} -  */

/** java lesson {n} -  */

/** java lesson {n} -  */

/** java lesson {n} -  */

/** java lesson {n} -  */

/** java lesson {n} -  */

/** java lesson {n} -  */

/** java lesson {n} -  */

/** java lesson {n} -  */

/** java lesson {n} -  */

/** java lesson {n} -  */

/** java lesson {n} -  */

/** java lesson {n} -  */

/** java lesson {n} -  */

/** java lesson {n} -  */

/** java lesson {n} -  */

/** java lesson {n} -  */

/** java lesson {n} -  */

/** java lesson {n} -  */

/** java lesson {n} -  */

/** java lesson {n} -  */

/** java lesson {n} -  */

/** java lesson {n} -  */

/** java lesson {n} -  */

/** java lesson {n} -  */

/** java lesson {n} -  */

/** java lesson {n} -  */

/** java lesson {n} -  */

/** java lesson {n} -  */

/** java lesson {n} -  */

/** java lesson {n} -  */

/** java lesson {n} -  */

/** java lesson {n} -  */

/** java lesson {n} -  */

/** java lesson {n} -  */

/** java lesson {n} -  */

/** java lesson {n} -  */

/** java lesson {n} -  */

/** java lesson {n} -  */

/** java lesson {n} -  */

/** java lesson {n} -  */

/** java lesson {n} -  */

/** java lesson {n} -  */

/** java lesson {n} -  */

/** java lesson {n} -  */

/** java lesson {n} -  */

/** java lesson {n} -  */

/** java lesson {n} -  */

/** java lesson {n} -  */

/** java lesson {n} -  */

/** java lesson {n} -  */

/** java lesson {n} -  */

/** java lesson {n} -  */

/** java lesson {n} -  */

/** java lesson {n} -  */

/** java lesson {n} -  */

/** java lesson {n} -  */

/** java lesson {n} -  */

/** java lesson {n} -  */

/** java lesson {n} -  */

/** java lesson {n} -  */

/** java lesson {n} -  */

/** java lesson {n} -  */

/** java lesson {n} -  */

/** java lesson {n} -  */

/** java lesson {n} -  */

/** java lesson {n} -  */

/** java lesson {n} -  */

/** java lesson {n} -  */

/** java lesson {n} -  */

/** java lesson {n} -  */

/** java lesson {n} -  */

/** java lesson {n} -  */

/** java lesson {n} -  */

/** java lesson {n} -  */

/** java lesson {n} -  */

/** java lesson {n} -  */

/** java lesson {n} -  */

/** java lesson {n} -  */

/** java lesson {n} -  */

/** java lesson {n} -  */

/** java lesson {n} -  */

/** java lesson {n} -  */

/** java lesson {n} -  */

/** java lesson {n} -  */

/** java lesson {n} -  */

/** java lesson {n} -  */

/** java lesson {n} -  */

/** java lesson {n} -  */

/** java lesson {n} -  */

/** java lesson {n} -  */

/** java lesson {n} -  */

/** java lesson {n} -  */

/** java lesson {n} -  */

/** java lesson {n} -  */

/** java lesson {n} -  */

/** java lesson {n} -  */

/** java lesson {n} -  */

/** java lesson {n} -  */

/** java lesson {n} -  */

/** java lesson {n} -  */

/** java lesson {n} -  */

/** java lesson {n} -  */

/** java lesson {n} -  */

/** java lesson {n} -  */

/** java lesson {n} -  */

/** java lesson {n} -  */

/** java lesson {n} -  */

/** java lesson {n} -  */

/** java lesson {n} -  */

/** java lesson {n} -  */

/** java lesson {n} -  */

/** java lesson {n} -  */

/** java lesson {n} -  */

/** java lesson {n} -  */

/** java lesson {n} -  */

/** java lesson {n} -  */

/** java lesson {n} -  */

/** java lesson {n} -  */

/** java lesson {n} -  */

/** java lesson {n} -  */

/** java lesson {n} -  */

/** java lesson {n} -  */

/** java lesson {n} -  */

/** java lesson {n} -  */

/** java lesson {n} -  */

/** java lesson {n} -  */

/** java lesson {n} -  */

/** java lesson {n} -  */

/** java lesson {n} -  */

/** java lesson {n} -  */

/** java lesson {n} -  */

/** java lesson {n} -  */

/** java lesson {n} -  */

/** java lesson {n} -  */

/** java lesson {n} -  */

/** java lesson {n} -  */

/** java lesson {n} -  */

/** java lesson {n} -  */

/** java lesson {n} -  */

/** java lesson {n} -  */

/** java lesson {n} -  */

/** java lesson {n} -  */

/** java lesson {n} -  */

/** java lesson {n} -  */

/** java lesson {n} -  */

/** java lesson {n} -  */

/** java lesson {n} -  */

/** java lesson {n} -  */

/** java lesson {n} -  */

/** java lesson {n} -  */

/** java lesson {n} -  */

/** java lesson {n} -  */

/** java lesson {n} -  */

/** java lesson {n} -  */

/** java lesson {n} -  */

/** java lesson {n} -  */

/** java lesson {n} -  */

/** java lesson {n} -  */

/** java lesson {n} -  */

/** java lesson {n} -  */

/** java lesson {n} -  */

/** java lesson {n} -  */
	
/** java lesson {n} -  */

/** java lesson {n} -  */

/** java lesson {n} -  */

/** java lesson {n} -  */

/** java lesson {n} -  */

/** java lesson {n} -  */

/** java lesson {n} -  */

/** java lesson {n} -  */

/** java lesson {n} -  */

/** java lesson {n} -  */

/** java lesson {n} -  */

/** java lesson {n} -  */

/** java lesson {n} -  */

/** java lesson {n} -  */

/** java lesson {n} -  */

/** java lesson {n} -  */

/** java lesson {n} -  */

/** java lesson {n} -  */

/** java lesson {n} -  */

/** java lesson {n} -  */

/** java lesson {n} -  */

/** java lesson {n} -  */

/** java lesson {n} -  */

/** java lesson {n} -  */

/** java lesson {n} -  */

/** java lesson {n} -  */

/** java lesson {n} -  */

/** java lesson {n} -  */

/** java lesson {n} -  */

/** java lesson {n} -  */

/** java lesson {n} -  */

/** java lesson {n} -  */

/** java lesson {n} -  */

/** java lesson {n} -  */

/** java lesson {n} -  */

/** java lesson {n} -  */

/** java lesson {n} -  */

/** java lesson {n} -  */

/** java lesson {n} -  */

/** java lesson {n} -  */

/** java lesson {n} -  */

/** java lesson {n} -  */

/** java lesson {n} -  */

/** java lesson {n} -  */

/** java lesson {n} -  */

/** java lesson {n} -  */

/** java lesson {n} -  */

/** java lesson {n} -  */

/** java lesson {n} -  */

/** java lesson {n} -  */

/** java lesson {n} -  */

/** java lesson {n} -  */

/** java lesson {n} -  */

/** java lesson {n} -  */

/** java lesson {n} -  */

/** java lesson {n} -  */

/** java lesson {n} -  */

/** java lesson {n} -  */

/** java lesson {n} -  */

/** java lesson {n} -  */

/** java lesson {n} -  */

/** java lesson {n} -  */

/** java lesson {n} -  */

/** java lesson {n} -  */

/** java lesson {n} -  */

/** java lesson {n} -  */

/** java lesson {n} -  */

/** java lesson {n} -  */

/** java lesson {n} -  */

/** java lesson {n} -  */

/** java lesson {n} -  */

/** java lesson {n} -  */

/** java lesson {n} -  */

/** java lesson {n} -  */

/** java lesson {n} -  */

/** java lesson {n} -  */

/** java lesson {n} -  */

/** java lesson {n} -  */

/** java lesson {n} -  */

/** java lesson {n} -  */

/** java lesson {n} -  */

/** java lesson {n} -  */

/** java lesson {n} -  */

/** java lesson {n} -  */

/** java lesson {n} -  */

/** java lesson {n} -  */

/** java lesson {n} -  */

/** java lesson {n} -  */

/** java lesson {n} -  */

/** java lesson {n} -  */

/** java lesson {n} -  */

/** java lesson {n} -  */

/** java lesson {n} -  */

/** java lesson {n} -  */

/** java lesson {n} -  */

/** java lesson {n} -  */

/** java lesson {n} -  */

/** java lesson {n} -  */

/** java lesson {n} -  */

/** java lesson {n} -  */

/** java lesson {n} -  */

/** java lesson {n} -  */

/** java lesson {n} -  */

/** java lesson {n} -  */

/** java lesson {n} -  */

/** java lesson {n} -  */

/** java lesson {n} -  */

/** java lesson {n} -  */

/** java lesson {n} -  */

/** java lesson {n} -  */

/** java lesson {n} -  */

/** java lesson {n} -  */

/** java lesson {n} -  */

/** java lesson {n} -  */

/** java lesson {n} -  */

/** java lesson {n} -  */

/** java lesson {n} -  */

/** java lesson {n} -  */

/** java lesson {n} -  */

/** java lesson {n} -  */

/** java lesson {n} -  */

/** java lesson {n} -  */

/** java lesson {n} -  */

/** java lesson {n} -  */

/** java lesson {n} -  */

/** java lesson {n} -  */

/** java lesson {n} -  */

/** java lesson {n} -  */

/** java lesson {n} -  */

/** java lesson {n} -  */

/** java lesson {n} -  */

/** java lesson {n} -  */

/** java lesson {n} -  */
	
/** java lesson {n} -  */

/** java lesson {n} -  */

/** java lesson {n} -  */

/** java lesson {n} -  */

/** java lesson {n} -  */

/** java lesson {n} -  */

/** java lesson {n} -  */

/** java lesson {n} -  */

/** java lesson {n} -  */

/** java lesson {n} -  */

/** java lesson {n} -  */

/** java lesson {n} -  */

/** java lesson {n} -  */

/** java lesson {n} -  */

/** java lesson {n} -  */

/** java lesson {n} -  */

/** java lesson {n} -  */

/** java lesson {n} -  */

/** java lesson {n} -  */

/** java lesson {n} -  */

/** java lesson {n} -  */

/** java lesson {n} -  */

/** java lesson {n} -  */

/** java lesson {n} -  */

/** java lesson {n} -  */

/** java lesson {n} -  */

/** java lesson {n} -  */

/** java lesson {n} -  */

/** java lesson {n} -  */

/** java lesson {n} -  */

/** java lesson {n} -  */

/** java lesson {n} -  */

/** java lesson {n} -  */

/** java lesson {n} -  */

/** java lesson {n} -  */

/** java lesson {n} -  */

/** java lesson {n} -  */

/** java lesson {n} -  */

/** java lesson {n} -  */

/** java lesson {n} -  */

/** java lesson {n} -  */

/** java lesson {n} -  */

/** java lesson {n} -  */

/** java lesson {n} -  */

/** java lesson {n} -  */

/** java lesson {n} -  */

/** java lesson {n} -  */

/** java lesson {n} -  */

/** java lesson {n} -  */

/** java lesson {n} -  */

/** java lesson {n} -  */

/** java lesson {n} -  */

/** java lesson {n} -  */

/** java lesson {n} -  */

/** java lesson {n} -  */

/** java lesson {n} -  */

/** java lesson {n} -  */

/** java lesson {n} -  */

/** java lesson {n} -  */

/** java lesson {n} -  */

/** java lesson {n} -  */

/** java lesson {n} -  */

/** java lesson {n} -  */

/** java lesson {n} -  */

/** java lesson {n} -  */

/** java lesson {n} -  */

/** java lesson {n} -  */

/** java lesson {n} -  */

/** java lesson {n} -  */

/** java lesson {n} -  */

/** java lesson {n} -  */

/** java lesson {n} -  */

/** java lesson {n} -  */

/** java lesson {n} -  */

/** java lesson {n} -  */

/** java lesson {n} -  */

/** java lesson {n} -  */

/** java lesson {n} -  */

/** java lesson {n} -  */

/** java lesson {n} -  */

/** java lesson {n} -  */

/** java lesson {n} -  */

/** java lesson {n} -  */

/** java lesson {n} -  */

/** java lesson {n} -  */

/** java lesson {n} -  */

/** java lesson {n} -  */

/** java lesson {n} -  */

/** java lesson {n} -  */

/** java lesson {n} -  */

/** java lesson {n} -  */

/** java lesson {n} -  */

/** java lesson {n} -  */

/** java lesson {n} -  */

/** java lesson {n} -  */

/** java lesson {n} -  */

/** java lesson {n} -  */

/** java lesson {n} -  */

/** java lesson {n} -  */

/** java lesson {n} -  */

/** java lesson {n} -  */

/** java lesson {n} -  */

/** java lesson {n} -  */

/** java lesson {n} -  */

/** java lesson {n} -  */

/** java lesson {n} -  */

/** java lesson {n} -  */

/** java lesson {n} -  */

/** java lesson {n} -  */

/** java lesson {n} -  */

/** java lesson {n} -  */

/** java lesson {n} -  */

/** java lesson {n} -  */

/** java lesson {n} -  */

/** java lesson {n} -  */

/** java lesson {n} -  */

/** java lesson {n} -  */

/** java lesson {n} -  */

/** java lesson {n} -  */

/** java lesson {n} -  */

/** java lesson {n} -  */

/** java lesson {n} -  */

/** java lesson {n} -  */

/** java lesson {n} -  */

/** java lesson {n} -  */

/** java lesson {n} -  */

/** java lesson {n} -  */

/** java lesson {n} -  */

/** java lesson {n} -  */

/** java lesson {n} -  */

/** java lesson {n} -  */

/** java lesson {n} -  */

/** java lesson {n} -  */
	
	